﻿morph_genes = {

#This adds 2 copies of elve ear gene. Every elve will have one of each and together they produce long ears. They are limited to 0.5 max as added up together they will go to 1.0.
#The reason for 2 genes is so that half-elves work as you would imagine from fantasy, children with half long ears. Otherwise children of mixed race would either have full length ears, or short human ears.
#Default way is more realistic but not what you expect from fantasy half elves. This is not ideal either, but this makes it so children have a 25% chance
#of being born with full mer ears,50% half ears (or somewhere in between quarter and half most likely) and 25% no mer ears. Still more immersive than one gene, but there's still a small chance of
#great grandkids sprouting mer ears though.


	race_gene_mer_ears_01 = {
		#inheritable = yes #not a thing in vicky3
		default_1 = { 
			index = 0
			male = {}
			female = male
			boy = male
			girl = male
		}
		mer_ears_01 = {
			index = 1
			male = {
				setting = { attribute = "race_mer_ears_01_bs"	value = { min = 0.0 max = 0.5 }	age = age_preset_child_features } 
			}
			female = male
			boy = male
			girl = male
		}
		mer_ears_02 = {
			index = 2
			male = {
				setting = { attribute = "race_mer_ears_02_bs"	value = { min = 0.0 max = 0.5 }	age = age_preset_child_features } 
			}
			female = male
			boy = male
			girl = male
		}

		mer_ears_03 = {
			index = 3
			male = {
				setting = { attribute = "race_mer_ears_03_bs"	value = { min = 0.0 max = 0.5 }	age = age_preset_child_features } 
			}
			female = male
			boy = male
			girl = male
			}
		}
	
		race_gene_mer_ears_02 = {
		#inheritable = yes
		default_1 = { 
			index = 0
			male = {}
			female = male
			boy = male
			girl = male
		}

		mer_ears_01 = {
			index = 1
			male = {
				setting = { attribute = "race_mer_ears_01_bs"	value = { min = 0.0 max = 0.5 }	age = age_preset_child_features } 
			}
			female = male
			boy = male
			girl = male
		}
		mer_ears_02 = {
			index = 2
			male = {
				setting = { attribute = "race_mer_ears_02_bs"	value = { min = 0.0 max = 0.5 }	age = age_preset_child_features } 
			}
			female = male
			boy = male
			girl = male
		}

		mer_ears_03 = {
			index = 3
			male = {
				setting = { attribute = "race_mer_ears_03_bs"	value = { min = 0.0 max = 0.5 }	age = age_preset_child_features } 
			}
			female = male
			boy = male
			girl = male
		}
	}

}


